v 78.99124764850013 15.326659991500122 20.240528939287735
v 15.090865447271455 15.326659991500037 20.240528939287763
v 15.090865447271682 114.3604630135001 20.240528939287795
v 78.99124764850035 114.36046301350021 20.24052893928787
v 94.31790763999997 8.526512829121202E-14 20.240528939287714
v 0.0 0.0 20.240528939287742
v 2.2737367544323206E-13 129.6871230050002 20.240528939287863
v 94.31790764000024 129.68712300500033 20.240528939287742
v 78.99124764850016 15.326659991500122 -12.699999809265176
v 15.090865447271455 15.326659991500037 -12.699999809265103
v 15.090865447271653 114.3604630135001 -12.69999980926507
v 78.9912476485002 114.36046301350021 -12.699999809265156
v 94.31790764000007 1.1368683772161603E-13 -12.699999809265076
v 0.0 0.0 -12.699999809265119
v 2.2737367544323206E-13 129.68712300500022 -12.699999809265101
v 94.31790764000044 129.68712300500044 -12.699999809265186
f 1 9 10 2
f 2 10 11 3
f 3 11 12 4
f 4 12 9 1
f 5 6 14 13
f 6 7 15 14
f 7 8 16 15
f 8 5 13 16
f 8 7 4
f 8 4 5
f 7 6 3
f 7 3 4
f 6 5 1
f 6 1 2
f 6 2 3
f 5 4 1
f 13 14 9
f 13 9 12
f 13 12 16
f 14 15 11
f 14 11 10
f 14 10 9
f 15 16 12
f 15 12 11
