v 35.35533905932738 12.928932188134537 24.142135623730944
v 69.49747468305833 18.786796564403588 4.142135623730953
v 17.071067811865472 2.9289321881345343 -10.0
v 51.21320343559643 8.786796564403588 -29.999999999999996
f 1 3 4 2
